-------------------------------------------------------------------------------
Test set: model.MergeSortTest
-------------------------------------------------------------------------------
Tests run: 7, Failures: 0, Errors: 0, Skipped: 0, Time elapsed: 0.001 s - in model.MergeSortTest
