-------------------------------------------------------------------------------
Test set: atl.grade.jdbc.StudentsDaoTest
-------------------------------------------------------------------------------
Tests run: 6, Failures: 0, Errors: 0, Skipped: 0, Time elapsed: 1.487 sec
